<?xml version="1.0" standalone="no"?>
<!DOCTYPE svg PUBLIC "-//W3C//DTD SVG 20010904//EN"
 "http://www.w3.org/TR/2001/REC-SVG-20010904/DTD/svg10.dtd">
<svg version="1.0" xmlns="http://www.w3.org/2000/svg"
 width="1204.000000pt" height="1024.000000pt" viewBox="0 0 1204.000000 1024.000000"
 preserveAspectRatio="xMidYMid meet">
<metadata>
Created by potrace 1.15, written by Peter Selinger 2001-2017
</metadata>
<g transform="translate(0.000000,1024.000000) scale(0.100000,-0.100000)"
fill="#000000" stroke="none">
<path d="M3528 9945 c-71 -24 -127 -88 -143 -164 -4 -19 -20 -62 -35 -95 -15
-34 -38 -83 -50 -111 -12 -27 -30 -69 -41 -92 -10 -24 -28 -64 -40 -90 -12
-27 -29 -66 -40 -88 -10 -22 -38 -83 -63 -135 -24 -52 -54 -117 -66 -145 -12
-27 -30 -68 -41 -90 -10 -22 -27 -61 -38 -87 -33 -77 -60 -135 -121 -263 -32
-66 -99 -214 -150 -330 -51 -115 -96 -214 -100 -220 -4 -5 -23 -46 -43 -90
-19 -44 -51 -116 -72 -160 -20 -44 -46 -100 -57 -125 -22 -50 -34 -76 -77
-171 -47 -104 -49 -126 -46 -414 4 -262 11 -1285 20 -2645 3 -366 7 -1002 10
-1415 3 -412 7 -1084 10 -1492 4 -726 4 -742 25 -785 39 -81 74 -122 125 -148
l50 -25 3595 -1 c2849 -1 3604 2 3638 12 58 17 110 58 129 102 9 21 23 51 32
67 15 27 16 308 19 3335 l2 3305 -27 75 c-24 67 -90 202 -260 530 -84 162
-109 212 -130 255 -72 144 -86 172 -95 190 -7 11 -72 139 -146 285 -75 146
-168 328 -208 405 -40 77 -86 169 -103 205 -18 36 -37 74 -43 85 -7 11 -53
101 -102 200 -50 99 -104 197 -120 218 -32 42 -118 103 -163 116 -16 5 -1147
9 -2514 9 -1944 0 -2493 -3 -2521 -13z m2399 -418 c4 -4 7 -446 8 -982 0 -968
0 -975 -20 -976 -25 -1 -642 -6 -1870 -14 -528 -4 -1008 -7 -1068 -8 -59 -1
-107 -1 -107 0 0 1 16 37 36 80 47 101 65 142 104 233 18 41 45 102 60 135 15
33 58 130 95 215 37 85 76 173 86 195 10 22 27 61 38 88 12 26 30 67 41 92 11
25 29 65 40 90 11 25 29 65 40 90 11 25 29 66 41 93 11 26 25 55 30 65 5 10
66 145 135 300 70 155 130 289 134 297 7 13 138 15 1089 15 594 -1 1084 -4
1088 -8z m2464 4 c10 -1 33 -32 56 -78 222 -433 284 -554 402 -788 76 -148
142 -279 148 -290 6 -11 28 -54 49 -95 36 -72 151 -297 172 -336 6 -10 17 -32
25 -49 8 -16 44 -88 81 -160 36 -71 66 -134 66 -140 0 -7 -190 -10 -548 -11
-301 -1 -981 -4 -1512 -7 l-965 -6 1 962 c1 529 2 970 3 979 1 11 11 18 34 20
28 3 1946 2 1988 -1z m1140 -2395 c1 -11 2 -1397 3 -3078 l1 -3058 -25 -1
c-14 -1 -1535 -2 -3380 -3 l-3355 -1 -1 325 c-1 179 -5 737 -9 1240 -3 503 -8
1196 -10 1540 -2 344 -7 996 -10 1450 -10 1312 -11 1551 -4 1561 3 6 366 11
915 14 500 3 1249 8 1664 10 1659 10 2404 15 3254 20 489 2 890 6 892 8 2 2
17 2 34 -1 22 -3 30 -10 31 -26z"/>
<path d="M7730 5030 c-20 -10 -63 -51 -98 -92 -34 -40 -89 -104 -122 -143 -69
-81 -307 -363 -349 -415 -16 -19 -84 -100 -152 -179 -68 -78 -131 -153 -139
-166 -9 -12 -39 -49 -67 -81 -105 -120 -238 -277 -253 -298 -8 -11 -69 -84
-136 -161 -66 -77 -125 -148 -130 -157 -5 -9 -31 -41 -59 -71 -27 -30 -68 -77
-90 -104 l-40 -50 -30 20 c-16 12 -41 29 -55 39 -41 30 -100 71 -140 98 -21
14 -57 39 -80 55 -23 17 -59 41 -80 55 -70 47 -205 141 -281 194 -80 56 -129
71 -189 57 -131 -30 -203 -148 -166 -274 16 -55 55 -99 137 -155 105 -70 139
-92 145 -92 3 0 21 -12 39 -27 18 -16 48 -38 67 -51 18 -12 62 -43 98 -68 36
-24 78 -52 94 -62 16 -9 40 -27 55 -38 14 -12 40 -30 57 -40 56 -34 88 -57
189 -139 55 -44 109 -85 120 -91 29 -15 83 -6 131 22 51 30 98 82 412 456 86
103 211 250 277 327 66 78 130 155 143 173 12 17 45 57 72 87 46 52 228 267
284 336 61 74 240 285 285 335 28 31 63 73 79 95 16 22 66 83 110 135 44 52
95 112 112 132 53 62 78 191 47 244 -16 27 -74 77 -114 98 -44 22 -138 20
-183 -4z"/>
</g>
</svg>
