{
  "project_info": {
    "project_number": "616338791005",
    "firebase_url": "https://ionic-4-fcm-5310d.firebaseio.com",
    "project_id": "ionic-4-fcm-5310d",
    "storage_bucket": "ionic-4-fcm-5310d.appspot.com"
  },
  "client": [
    {
      "client_info": {
        "mobilesdk_app_id": "1:616338791005:android:51f1bc5ed3a06f43",
        "android_client_info": {
          "package_name": "com.global.supmobile"
        }
      },
      "oauth_client": [
        {
          "client_id": "616338791005-f2hav5l83d4dpee8tfd4pgar9uioirdt.apps.googleusercontent.com",
          "client_type": 3
        }
      ],
      "api_key": [
        {
          "current_key": "AIzaSyCmw0_9YdJOBKX7d_Gop740JM_0w3nglrU"
        }
      ],
      "services": {
        "appinvite_service": {
          "other_platform_oauth_client": [
            {
              "client_id": "616338791005-f2hav5l83d4dpee8tfd4pgar9uioirdt.apps.googleusercontent.com",
              "client_type": 3
            }
          ]
        }
      }
    },
    {
      "client_info": {
        "mobilesdk_app_id": "1:616338791005:android:f92e2a405d8f29f2",
        "android_client_info": {
          "package_name": "com.global.venderfcm"
        }
      },
      "oauth_client": [
        {
          "client_id": "616338791005-f2hav5l83d4dpee8tfd4pgar9uioirdt.apps.googleusercontent.com",
          "client_type": 3
        }
      ],
      "api_key": [
        {
          "current_key": "AIzaSyCmw0_9YdJOBKX7d_Gop740JM_0w3nglrU"
        }
      ],
      "services": {
        "appinvite_service": {
          "other_platform_oauth_client": [
            {
              "client_id": "616338791005-f2hav5l83d4dpee8tfd4pgar9uioirdt.apps.googleusercontent.com",
              "client_type": 3
            }
          ]
        }
      }
    },
    {
      "client_info": {
        "mobilesdk_app_id": "1:616338791005:android:d0f2216509a1f6b1ef4bb4",
        "android_client_info": {
          "package_name": "com.globalhouse.CompetitorSurvey"
        }
      },
      "oauth_client": [
        {
          "client_id": "616338791005-f2hav5l83d4dpee8tfd4pgar9uioirdt.apps.googleusercontent.com",
          "client_type": 3
        }
      ],
      "api_key": [
        {
          "current_key": "AIzaSyCmw0_9YdJOBKX7d_Gop740JM_0w3nglrU"
        }
      ],
      "services": {
        "appinvite_service": {
          "other_platform_oauth_client": [
            {
              "client_id": "616338791005-f2hav5l83d4dpee8tfd4pgar9uioirdt.apps.googleusercontent.com",
              "client_type": 3
            }
          ]
        }
      }
    },
    {
      "client_info": {
        "mobilesdk_app_id": "1:616338791005:android:9699af124c2c809e",
        "android_client_info": {
          "package_name": "com.globalhouse.TrackingMobile"
        }
      },
      "oauth_client": [
        {
          "client_id": "616338791005-f2hav5l83d4dpee8tfd4pgar9uioirdt.apps.googleusercontent.com",
          "client_type": 3
        }
      ],
      "api_key": [
        {
          "current_key": "AIzaSyCmw0_9YdJOBKX7d_Gop740JM_0w3nglrU"
        }
      ],
      "services": {
        "appinvite_service": {
          "other_platform_oauth_client": [
            {
              "client_id": "616338791005-f2hav5l83d4dpee8tfd4pgar9uioirdt.apps.googleusercontent.com",
              "client_type": 3
            }
          ]
        }
      }
    },
    {
      "client_info": {
        "mobilesdk_app_id": "1:616338791005:android:b6a8bdefc55fea2def4bb4",
        "android_client_info": {
          "package_name": "com.globalhouse.agiliswmsmobile"
        }
      },
      "oauth_client": [
        {
          "client_id": "616338791005-f2hav5l83d4dpee8tfd4pgar9uioirdt.apps.googleusercontent.com",
          "client_type": 3
        }
      ],
      "api_key": [
        {
          "current_key": "AIzaSyCmw0_9YdJOBKX7d_Gop740JM_0w3nglrU"
        }
      ],
      "services": {
        "appinvite_service": {
          "other_platform_oauth_client": [
            {
              "client_id": "616338791005-f2hav5l83d4dpee8tfd4pgar9uioirdt.apps.googleusercontent.com",
              "client_type": 3
            }
          ]
        }
      }
    },
    {
      "client_info": {
        "mobilesdk_app_id": "1:616338791005:android:13df0affb989cf78ef4bb4",
        "android_client_info": {
          "package_name": "com.globalhouse.biman"
        }
      },
      "oauth_client": [
        {
          "client_id": "616338791005-f2hav5l83d4dpee8tfd4pgar9uioirdt.apps.googleusercontent.com",
          "client_type": 3
        }
      ],
      "api_key": [
        {
          "current_key": "AIzaSyCmw0_9YdJOBKX7d_Gop740JM_0w3nglrU"
        }
      ],
      "services": {
        "appinvite_service": {
          "other_platform_oauth_client": [
            {
              "client_id": "616338791005-f2hav5l83d4dpee8tfd4pgar9uioirdt.apps.googleusercontent.com",
              "client_type": 3
            }
          ]
        }
      }
    },
    {
      "client_info": {
        "mobilesdk_app_id": "1:616338791005:android:b0f2853c2d5b6bcbef4bb4",
        "android_client_info": {
          "package_name": "com.globalhouse.changlightbulb"
        }
      },
      "oauth_client": [
        {
          "client_id": "616338791005-f2hav5l83d4dpee8tfd4pgar9uioirdt.apps.googleusercontent.com",
          "client_type": 3
        }
      ],
      "api_key": [
        {
          "current_key": "AIzaSyCmw0_9YdJOBKX7d_Gop740JM_0w3nglrU"
        }
      ],
      "services": {
        "appinvite_service": {
          "other_platform_oauth_client": [
            {
              "client_id": "616338791005-f2hav5l83d4dpee8tfd4pgar9uioirdt.apps.googleusercontent.com",
              "client_type": 3
            }
          ]
        }
      }
    },
    {
      "client_info": {
        "mobilesdk_app_id": "1:616338791005:android:9e235e4718d7f169ef4bb4",
        "android_client_info": {
          "package_name": "com.globalhouse.checkloss"
        }
      },
      "oauth_client": [
        {
          "client_id": "616338791005-f2hav5l83d4dpee8tfd4pgar9uioirdt.apps.googleusercontent.com",
          "client_type": 3
        }
      ],
      "api_key": [
        {
          "current_key": "AIzaSyCmw0_9YdJOBKX7d_Gop740JM_0w3nglrU"
        }
      ],
      "services": {
        "appinvite_service": {
          "other_platform_oauth_client": [
            {
              "client_id": "616338791005-f2hav5l83d4dpee8tfd4pgar9uioirdt.apps.googleusercontent.com",
              "client_type": 3
            }
          ]
        }
      }
    },
    {
      "client_info": {
        "mobilesdk_app_id": "1:616338791005:android:994e08f83117acd6ef4bb4",
        "android_client_info": {
          "package_name": "com.globalhouse.cyclemobile"
        }
      },
      "oauth_client": [
        {
          "client_id": "616338791005-f2hav5l83d4dpee8tfd4pgar9uioirdt.apps.googleusercontent.com",
          "client_type": 3
        }
      ],
      "api_key": [
        {
          "current_key": "AIzaSyCmw0_9YdJOBKX7d_Gop740JM_0w3nglrU"
        }
      ],
      "services": {
        "appinvite_service": {
          "other_platform_oauth_client": [
            {
              "client_id": "616338791005-f2hav5l83d4dpee8tfd4pgar9uioirdt.apps.googleusercontent.com",
              "client_type": 3
            }
          ]
        }
      }
    },
    {
      "client_info": {
        "mobilesdk_app_id": "1:616338791005:android:bfbf238806d3f3f3",
        "android_client_info": {
          "package_name": "com.globalhouse.exploredmarket"
        }
      },
      "oauth_client": [
        {
          "client_id": "616338791005-f2hav5l83d4dpee8tfd4pgar9uioirdt.apps.googleusercontent.com",
          "client_type": 3
        }
      ],
      "api_key": [
        {
          "current_key": "AIzaSyCmw0_9YdJOBKX7d_Gop740JM_0w3nglrU"
        }
      ],
      "services": {
        "appinvite_service": {
          "other_platform_oauth_client": [
            {
              "client_id": "616338791005-f2hav5l83d4dpee8tfd4pgar9uioirdt.apps.googleusercontent.com",
              "client_type": 3
            }
          ]
        }
      }
    },
    {
      "client_info": {
        "mobilesdk_app_id": "1:616338791005:android:064a0b2c853b002b",
        "android_client_info": {
          "package_name": "com.globalhouse.exploredmarketadmin"
        }
      },
      "oauth_client": [
        {
          "client_id": "616338791005-f2hav5l83d4dpee8tfd4pgar9uioirdt.apps.googleusercontent.com",
          "client_type": 3
        }
      ],
      "api_key": [
        {
          "current_key": "AIzaSyCmw0_9YdJOBKX7d_Gop740JM_0w3nglrU"
        }
      ],
      "services": {
        "appinvite_service": {
          "other_platform_oauth_client": [
            {
              "client_id": "616338791005-f2hav5l83d4dpee8tfd4pgar9uioirdt.apps.googleusercontent.com",
              "client_type": 3
            }
          ]
        }
      }
    },
    {
      "client_info": {
        "mobilesdk_app_id": "1:616338791005:android:3de4a42386d3815c",
        "android_client_info": {
          "package_name": "com.globalhouse.inventory"
        }
      },
      "oauth_client": [
        {
          "client_id": "616338791005-f2hav5l83d4dpee8tfd4pgar9uioirdt.apps.googleusercontent.com",
          "client_type": 3
        }
      ],
      "api_key": [
        {
          "current_key": "AIzaSyCmw0_9YdJOBKX7d_Gop740JM_0w3nglrU"
        }
      ],
      "services": {
        "appinvite_service": {
          "other_platform_oauth_client": [
            {
              "client_id": "616338791005-f2hav5l83d4dpee8tfd4pgar9uioirdt.apps.googleusercontent.com",
              "client_type": 3
            }
          ]
        }
      }
    },
    {
      "client_info": {
        "mobilesdk_app_id": "1:616338791005:android:c3e43631c37875e3",
        "android_client_info": {
          "package_name": "com.globalhouse.orderNow"
        }
      },
      "oauth_client": [
        {
          "client_id": "616338791005-f2hav5l83d4dpee8tfd4pgar9uioirdt.apps.googleusercontent.com",
          "client_type": 3
        }
      ],
      "api_key": [
        {
          "current_key": "AIzaSyCmw0_9YdJOBKX7d_Gop740JM_0w3nglrU"
        }
      ],
      "services": {
        "appinvite_service": {
          "other_platform_oauth_client": [
            {
              "client_id": "616338791005-f2hav5l83d4dpee8tfd4pgar9uioirdt.apps.googleusercontent.com",
              "client_type": 3
            }
          ]
        }
      }
    },
    {
      "client_info": {
        "mobilesdk_app_id": "1:616338791005:android:353938264332537c",
        "android_client_info": {
          "package_name": "com.globalhouse.posonclound"
        }
      },
      "oauth_client": [
        {
          "client_id": "616338791005-f2hav5l83d4dpee8tfd4pgar9uioirdt.apps.googleusercontent.com",
          "client_type": 3
        }
      ],
      "api_key": [
        {
          "current_key": "AIzaSyCmw0_9YdJOBKX7d_Gop740JM_0w3nglrU"
        }
      ],
      "services": {
        "appinvite_service": {
          "other_platform_oauth_client": [
            {
              "client_id": "616338791005-f2hav5l83d4dpee8tfd4pgar9uioirdt.apps.googleusercontent.com",
              "client_type": 3
            }
          ]
        }
      }
    },
    {
      "client_info": {
        "mobilesdk_app_id": "1:616338791005:android:91266f4049d6b0acef4bb4",
        "android_client_info": {
          "package_name": "com.globalhouse.technician"
        }
      },
      "oauth_client": [
        {
          "client_id": "616338791005-f2hav5l83d4dpee8tfd4pgar9uioirdt.apps.googleusercontent.com",
          "client_type": 3
        }
      ],
      "api_key": [
        {
          "current_key": "AIzaSyCmw0_9YdJOBKX7d_Gop740JM_0w3nglrU"
        }
      ],
      "services": {
        "appinvite_service": {
          "other_platform_oauth_client": [
            {
              "client_id": "616338791005-f2hav5l83d4dpee8tfd4pgar9uioirdt.apps.googleusercontent.com",
              "client_type": 3
            }
          ]
        }
      }
    },
    {
      "client_info": {
        "mobilesdk_app_id": "1:616338791005:android:9cd6908108bcc2d9",
        "android_client_info": {
          "package_name": "com.globalmobile.gadvisor"
        }
      },
      "oauth_client": [
        {
          "client_id": "616338791005-f2hav5l83d4dpee8tfd4pgar9uioirdt.apps.googleusercontent.com",
          "client_type": 3
        }
      ],
      "api_key": [
        {
          "current_key": "AIzaSyCmw0_9YdJOBKX7d_Gop740JM_0w3nglrU"
        }
      ],
      "services": {
        "appinvite_service": {
          "other_platform_oauth_client": [
            {
              "client_id": "616338791005-f2hav5l83d4dpee8tfd4pgar9uioirdt.apps.googleusercontent.com",
              "client_type": 3
            }
          ]
        }
      }
    },
    {
      "client_info": {
        "mobilesdk_app_id": "1:616338791005:android:670e2d29522a9d6c",
        "android_client_info": {
          "package_name": "com.globalmobile.greport"
        }
      },
      "oauth_client": [
        {
          "client_id": "616338791005-f2hav5l83d4dpee8tfd4pgar9uioirdt.apps.googleusercontent.com",
          "client_type": 3
        }
      ],
      "api_key": [
        {
          "current_key": "AIzaSyCmw0_9YdJOBKX7d_Gop740JM_0w3nglrU"
        }
      ],
      "services": {
        "appinvite_service": {
          "other_platform_oauth_client": [
            {
              "client_id": "616338791005-f2hav5l83d4dpee8tfd4pgar9uioirdt.apps.googleusercontent.com",
              "client_type": 3
            }
          ]
        }
      }
    },
    {
      "client_info": {
        "mobilesdk_app_id": "1:616338791005:android:e6d04b3d5b8b2f18",
        "android_client_info": {
          "package_name": "com.globalmobile.hr"
        }
      },
      "oauth_client": [
        {
          "client_id": "616338791005-f2hav5l83d4dpee8tfd4pgar9uioirdt.apps.googleusercontent.com",
          "client_type": 3
        }
      ],
      "api_key": [
        {
          "current_key": "AIzaSyCmw0_9YdJOBKX7d_Gop740JM_0w3nglrU"
        }
      ],
      "services": {
        "appinvite_service": {
          "other_platform_oauth_client": [
            {
              "client_id": "616338791005-f2hav5l83d4dpee8tfd4pgar9uioirdt.apps.googleusercontent.com",
              "client_type": 3
            }
          ]
        }
      }
    },
    {
      "client_info": {
        "mobilesdk_app_id": "1:616338791005:android:014644a96dfc5671ef4bb4",
        "android_client_info": {
          "package_name": "com.globalmobile.planogram"
        }
      },
      "oauth_client": [
        {
          "client_id": "616338791005-f2hav5l83d4dpee8tfd4pgar9uioirdt.apps.googleusercontent.com",
          "client_type": 3
        }
      ],
      "api_key": [
        {
          "current_key": "AIzaSyCmw0_9YdJOBKX7d_Gop740JM_0w3nglrU"
        }
      ],
      "services": {
        "appinvite_service": {
          "other_platform_oauth_client": [
            {
              "client_id": "616338791005-f2hav5l83d4dpee8tfd4pgar9uioirdt.apps.googleusercontent.com",
              "client_type": 3
            }
          ]
        }
      }
    }
  ],
  "configuration_version": "1"
}