<?xml version="1.0" standalone="no"?>
<!DOCTYPE svg PUBLIC "-//W3C//DTD SVG 20010904//EN"
 "http://www.w3.org/TR/2001/REC-SVG-20010904/DTD/svg10.dtd">
<svg version="1.0" xmlns="http://www.w3.org/2000/svg"
 width="90.000000pt" height="90.000000pt" viewBox="0 0 90.000000 90.000000"
 preserveAspectRatio="xMidYMid meet">
<metadata>
Created by potrace 1.15, written by Peter Selinger 2001-2017
</metadata>
<g transform="translate(0.000000,90.000000) scale(0.100000,-0.100000)"
 stroke="none">
<path d="M345 853 c-80 -42 -119 -108 -120 -204 0 -56 4 -73 30 -114 42 -67
118 -109 191 -103 119 10 204 90 212 201 7 98 -33 178 -110 218 -47 24 -159
25 -203 2z m184 -71 c43 -21 71 -73 71 -130 0 -105 -100 -183 -195 -152 -44
15 -102 80 -110 124 -18 96 76 195 170 179 17 -2 45 -12 64 -21z"/>
<path d="M357 390 c-143 -36 -246 -158 -255 -302 l-4 -68 30 0 c29 0 31 3 38
48 21 148 142 262 279 262 137 0 258 -114 279 -263 7 -44 9 -47 38 -47 l30 0
-4 67 c-11 171 -144 299 -321 308 -39 3 -89 0 -110 -5z"/>
</g>
</svg>
