<svg id="vacuum-cleaner" xmlns="http://www.w3.org/2000/svg" width="23.279" height="23.279" viewBox="0 0 23.279 23.279">
  <path id="Path_308" data-name="Path 308" d="M114.388,336a2.388,2.388,0,1,0,2.388,2.388A2.391,2.391,0,0,0,114.388,336Zm0,4.022a1.634,1.634,0,1,1,1.634-1.634A1.636,1.636,0,0,1,114.388,340.022Z" transform="translate(-106.369 -319.106)" fill="#666c70"/>
  <path id="Path_309" data-name="Path 309" d="M21.293,20.514h-.427v-.427a.78.78,0,0,0-.779-.779h-.025V13.651A13.666,13.666,0,0,0,6.41,0h-.68A5.732,5.732,0,0,0,1.678,9.785l.763.763a6.775,6.775,0,0,0-1.235,3.907v6.838a1.183,1.183,0,0,0,1.182,1.182H5.618a3.995,3.995,0,0,0,5.595-5.595V8.824a1.183,1.183,0,0,0-1.182-1.182H8.019A6.775,6.775,0,0,0,4.112,8.877l-.763-.763A3.369,3.369,0,0,1,5.731,2.363h.68A11.3,11.3,0,0,1,17.7,13.651v5.656h-.025a.78.78,0,0,0-.779.779v.489a1.183,1.183,0,0,0-.8,1.119V22.9a.377.377,0,0,0,.377.377H22.9a.377.377,0,0,0,.377-.377v-.4A1.988,1.988,0,0,0,21.293,20.514ZM7.642,8.409v.475a.441.441,0,0,1-.39.425A5.233,5.233,0,0,0,3.337,12.2a5.143,5.143,0,0,0-.522,2.257v3.62a.428.428,0,0,1-.427.427H1.961V14.455A6.066,6.066,0,0,1,7.642,8.409ZM1.961,21.293v-.427H4.35a4,4,0,0,0,.505.855H2.388A.428.428,0,0,1,1.961,21.293Zm6.059,1.232a3.243,3.243,0,1,1,3.243-3.243A3.247,3.247,0,0,1,8.019,22.525Zm2.439-13.7v7.294a4,4,0,0,0-6.348,3.994H1.961v-.855h.427A1.183,1.183,0,0,0,3.57,18.075v-3.62a4.395,4.395,0,0,1,.446-1.929,4.479,4.479,0,0,1,3.349-2.472A1.19,1.19,0,0,0,8.4,8.884V8.4h1.634A.428.428,0,0,1,10.458,8.824ZM5.731,1.609A4.123,4.123,0,0,0,2.816,8.647l.7.7a6.875,6.875,0,0,0-.6.6l-.7-.7A4.978,4.978,0,0,1,5.731.754h.68a12.841,12.841,0,0,1,8.422,3.137l-.606.606A11.989,11.989,0,0,0,6.41,1.609Zm9.053,3.4.6-.6q.342.332.659.688l-.605.605Q15.126,5.338,14.784,5.006Zm1.141,1.272,0,0,.605-.605a12.833,12.833,0,0,1,2.773,7.981v5.656h-.855V13.651A11.981,11.981,0,0,0,15.925,6.278Zm1.748,13.783h2.413a.025.025,0,0,1,.025.025v.427H17.648v-.427A.025.025,0,0,1,17.673,20.061Zm4.852,2.464H16.843V21.7a.428.428,0,0,1,.427-.427h4.022A1.233,1.233,0,0,1,22.525,22.5Z" fill="#666c70"/>
</svg>
