<svg id="_029-armchair" data-name="029-armchair" xmlns="http://www.w3.org/2000/svg" width="23.7" height="23.7" viewBox="0 0 23.7 23.7">
  <path id="Path_320" data-name="Path 320" d="M20.54,5.925a3.5,3.5,0,0,0-1.185.21v-1A5.141,5.141,0,0,0,14.22,0H9.48A5.141,5.141,0,0,0,4.345,5.135v1A3.5,3.5,0,0,0,3.16,5.925,2.986,2.986,0,0,0,0,8.69a2.986,2.986,0,0,0,3.16,2.765v7.11a1.975,1.975,0,0,0,1.659,1.943L5.542,23.4a.4.4,0,0,0,.383.3H8.3a.4.4,0,0,0,.383-.3l.715-2.861h4.914l.715,2.861a.4.4,0,0,0,.383.3h2.37a.4.4,0,0,0,.383-.3l.723-2.893a1.975,1.975,0,0,0,1.659-1.943v-7.11A2.986,2.986,0,0,0,23.7,8.69,2.986,2.986,0,0,0,20.54,5.925ZM9.48.79h4.74a4.35,4.35,0,0,1,4.345,4.345V6.541A2.626,2.626,0,0,0,17.38,8.69v2.116A3.548,3.548,0,0,0,14.615,9.48H9.085A3.548,3.548,0,0,0,6.32,10.806V8.69A2.627,2.627,0,0,0,5.135,6.54V5.135A4.35,4.35,0,0,1,9.48.79ZM6.32,17.38V13.035A2.768,2.768,0,0,1,9.085,10.27h5.53a2.768,2.768,0,0,1,2.765,2.765V17.38Zm1.667,5.53H6.233l-.593-2.37H8.579Zm9.48,0H15.714l-.593-2.37h2.938ZM20.54,10.665a2.234,2.234,0,0,1-.335-.023.4.4,0,0,0-.451.329.335.335,0,0,0,0,.054.3.3,0,0,0-.007.035v7.505a1.185,1.185,0,0,1-1.185,1.185H5.135A1.185,1.185,0,0,1,3.95,18.565V11.06a.3.3,0,0,0-.007-.035.335.335,0,0,0,0-.054.4.4,0,0,0-.451-.329,2.234,2.234,0,0,1-.335.023A2.2,2.2,0,0,1,.79,8.69,2.2,2.2,0,0,1,3.16,6.715a2.635,2.635,0,0,1,1.38.376,1.883,1.883,0,0,1,.99,1.6v9.085a.4.4,0,0,0,.4.4h11.85a.4.4,0,0,0,.4-.4V8.69a1.886,1.886,0,0,1,1-1.6,2.632,2.632,0,0,1,1.374-.372A2.2,2.2,0,0,1,22.91,8.69,2.2,2.2,0,0,1,20.54,10.665Zm0,0" fill="#666c70"/>
  <path id="Path_321" data-name="Path 321" d="M305.58,296a.4.4,0,0,0-.395.395v1.185h-.79a.4.4,0,1,0,0,.79h1.185a.4.4,0,0,0,.4-.4v-1.58A.4.4,0,0,0,305.58,296Zm0,0" transform="translate(-288.99 -281.385)" fill="#666c70"/>
  <path id="Path_322" data-name="Path 322" d="M265.185,328h-.79a.4.4,0,0,0,0,.79h.79a.4.4,0,1,0,0-.79Zm0,0" transform="translate(-250.965 -311.805)" fill="#666c70"/>
</svg>
