<svg xmlns="http://www.w3.org/2000/svg" width="30.505" height="21.608" viewBox="0 0 30.505 21.608">
  <g id="noun_tiles_393965" transform="translate(110 51.5)">
    <path id="Path_774" data-name="Path 774" d="M30.2,15.03,21.5,9.811l1.085-.69a.637.637,0,0,0,0-1.073L15.593,3.6a.637.637,0,0,0-.683,0L7.92,8.048a.637.637,0,0,0,0,1.073l1.085.691L.309,15.03a.636.636,0,0,0,0,1.088l14.617,8.9a.635.635,0,0,0,.661,0l14.617-8.9a.636.636,0,0,0,0-1.088ZM15.252,4.889,21.06,8.584l-5.807,3.695L9.445,8.584Zm-.342,8.68a.64.64,0,0,0,.342.1.632.632,0,0,0,.341-.1l4.707-3,.838.5-5.885,3.746L9.366,11.077l.838-.5ZM8.149,11.807l5.92,3.767L8.1,19.373l-6.236-3.8Zm7.1,11.92L9.31,20.11l5.942-3.781,5.942,3.781ZM22.4,19.374l-5.969-3.8,5.92-3.767,6.284,3.77Z" transform="translate(-110 -55)" fill="#666c70"/>
  </g>
</svg>
