<svg id="tap" xmlns="http://www.w3.org/2000/svg" width="26.952" height="26.053" viewBox="0 0 26.952 26.053">
  <path id="Path_730" data-name="Path 730" d="M17.856,336.472c-.19.334-1.856,3.291-1.856,4.716a2.246,2.246,0,0,0,4.492,0c0-1.426-1.666-4.382-1.856-4.716a.467.467,0,0,0-.78,0Zm.39,6.064a1.348,1.348,0,0,1-1.348-1.348,11.254,11.254,0,0,1,1.348-3.551,11.254,11.254,0,0,1,1.348,3.551A1.348,1.348,0,0,1,18.246,342.536Zm0,0" transform="translate(-15.102 -317.381)" fill="#666c70"/>
  <path id="Path_731" data-name="Path 731" d="M26.5,5.39h-2.7a.449.449,0,0,0-.449.449V7.187H17.321l-.668-2.368a.45.45,0,0,0-.433-.327h-1.4V2.7h3.144a1.348,1.348,0,0,0,0-2.7H8.984a1.348,1.348,0,0,0,0,2.7h3.144v1.8h-1.4a.45.45,0,0,0-.433.327L9.63,7.187H5.839A5.846,5.846,0,0,0,0,13.027V16.62a.449.449,0,0,0,.449.449h5.39a.449.449,0,0,0,.449-.449v-1.8a1.348,1.348,0,0,1,1.348-1.348h.526a4.728,4.728,0,0,0,4.764,3.594h1.1a4.727,4.727,0,0,0,4.764-3.594h4.569v1.348a.449.449,0,0,0,.449.449h2.7a.449.449,0,0,0,.449-.449V5.839A.449.449,0,0,0,26.5,5.39ZM8.535,1.348A.449.449,0,0,1,8.984.9h8.984a.449.449,0,0,1,0,.9H8.984A.449.449,0,0,1,8.535,1.348ZM13.027,2.7h.9v1.8h-.9ZM5.39,14.823v1.348H.9V13.027A4.947,4.947,0,0,1,5.839,8.085H9.377L8.11,12.577H7.636A2.249,2.249,0,0,0,5.39,14.823Zm8.634,1.348h-1.1a3.734,3.734,0,0,1-3.942-3.384l2.087-7.4h4.81l2.087,7.4A3.735,3.735,0,0,1,14.025,16.171Zm4.817-3.594L17.575,8.085h5.783v4.492Zm7.212,1.8h-1.8V6.289h1.8Zm0,0" transform="translate(0 0)" fill="#666c70"/>
</svg>
